<?xml version="1.0" encoding="utf-8"?>
<!-- Generator: Adobe Illustrator 16.0.0, SVG Export Plug-In . SVG Version: 6.00 Build 0)  -->
<!DOCTYPE svg PUBLIC "-//W3C//DTD SVG 1.1//EN" "http://www.w3.org/Graphics/SVG/1.1/DTD/svg11.dtd">
<svg version="1.1" id="Calque_1" xmlns="http://www.w3.org/2000/svg" xmlns:xlink="http://www.w3.org/1999/xlink" x="0px" y="0px"
	 width="378.667px" height="148.667px" viewBox="0 0 378.667 148.667" enable-background="new 0 0 378.667 148.667"
	 xml:space="preserve">
<path fill="#f8e805" d="M53.392,64.854c2.16-4.576,3.582-10.584,3.574-18.197L56.324,31.04h-0.346
	c-0.322,3.984-1.012,10.332-3.604,18.623c-1.504,4.809-4.289,10.742-7.869,15.057c-5.166,6.225-11.039,10.434-11.039,10.434
	s5.873,4.209,11.039,10.434c3.58,4.313,6.365,10.25,7.869,15.057c2.592,8.291,3.281,14.637,3.604,18.621h0.346l0.643-15.617
	c0.008-7.609-1.414-13.617-3.574-18.195c-3.553-7.531-7.787-10.299-7.787-10.299S49.839,72.384,53.392,64.854L53.392,64.854z
	 M39.66,31.257l0.041-24.961h-0.354c-1,12.139-3.744,22.857-5.881,29.428c-2.869,8.824-6.363,16.354-13.66,24.674
	C12.089,69.692,4.201,75.153,4.201,75.153s7.889,5.461,15.605,14.756c7.297,8.32,10.791,15.85,13.66,24.674
	c2.137,6.568,4.881,17.289,5.881,29.428h0.354L39.66,119.05c0.01-11.371-2.113-20.34-5.336-27.172
	c-5.309-11.246-12.83-16.725-12.83-16.725s7.521-5.479,12.83-16.723C37.546,51.597,39.669,42.626,39.66,31.257L39.66,31.257z"/>
<path fill="#8A8A8D" d="M141.404,93.87V68.224c0-5.045-2.51-8.619-10.914-8.619c-8.344,0-10.914,3.574-10.914,8.619v1.262
	c0,0.629,0.188,0.84,0.689,0.84h1.631c0.502,0,0.752-0.211,0.752-0.84v-1.053c0-3.434,1.633-5.814,7.781-5.814
	c6.209,0,7.777,2.521,7.777,5.885v6.65h-11.354c-5.207,0-7.844,4.785-7.844,9.34v2.65c0,4.555,2.762,8.127,8.594,8.127
	c5.209,0,8.846-2.592,10.664-4.201l0.127,2.801c0,0.559,0.188,0.84,0.754,0.84h1.568C141.216,94.71,141.404,94.429,141.404,93.87
	L141.404,93.87z M138.207,88.052c-1.441,1.264-4.957,4.135-9.912,4.135c-4.203,0-6.084-2.172-6.084-5.463v-1.809
	c0-3.365,1.568-6.818,5.205-6.818h10.791V88.052L138.207,88.052z M100.693,93.87l-13.99-18.779l12.359-14.086
	c0.375-0.42,0.188-0.84-0.314-0.84h-2.068c-0.504,0-0.879,0.42-1.254,0.84l-11.42,12.824h-2.258V46.571
	c0-0.561-0.25-0.842-0.754-0.842h-1.816c-0.504,0-0.691,0.281-0.691,0.842V93.87c0,0.559,0.188,0.84,0.691,0.84h1.816
	c0.504,0,0.754-0.281,0.754-0.84V76.702h2.32L96.992,93.87c0.377,0.559,0.754,0.84,1.316,0.84h2.072
	C100.818,94.71,101.007,94.29,100.693,93.87L100.693,93.87z"/>
<path fill="#8A8A8D" d="M283.148,93.87V61.075c0-0.631-0.25-0.91-0.756-0.91h-1.354c-0.568,0-0.762,0.279-0.762,0.91V93.87
	c0,0.559,0.193,0.84,0.762,0.84h1.354C282.898,94.71,283.148,94.429,283.148,93.87L283.148,93.87z"/>
<path fill="#8A8A8D" d="M329.833,93.87V61.075c0-0.631-0.188-0.91-0.691-0.91h-1.645c-0.5,0-0.688,0.279-0.688,0.91l-0.021,27.021
	c-1.441,1.328-4.848,4.25-9.801,4.25c-4.396,0-6.439-2.385-6.439-5.818V61.075c0-0.631-0.25-0.91-0.752-0.91h-1.531
	c-0.502,0-0.689,0.279-0.689,0.91v25.857c0,4.836,2.76,8.338,8.594,8.338c5.332,0,8.945-2.592,10.641-4.201l0.119,2.801
	c0,0.629,0.256,0.84,0.756,0.84h1.457C329.646,94.71,329.833,94.499,329.833,93.87L329.833,93.87z"/>
<path fill="#8A8A8D" d="M355.468,69.415v-2.174c0-2.941,2.26-4.834,7.465-4.834c5.271,0,7.592,1.893,7.592,4.834v2.174
	c0,0.561,0.25,0.77,0.689,0.77h1.631c0.564,0,0.752-0.209,0.752-0.77v-2.174c0-4.133-2.947-7.637-10.6-7.637
	c-7.717,0-10.602,3.504-10.602,7.637v2.805c0,3.502,2.758,5.885,4.893,6.656l9.785,3.434c2.135,0.77,3.953,1.963,3.953,4.275v3.152
	c0,2.943-2.697,4.902-8.094,4.902c-5.33,0-7.967-1.959-7.967-4.902v-1.824c0-0.488-0.188-0.768-0.627-0.768h-1.693
	c-0.502,0-0.691,0.279-0.691,0.768v1.963c0,4.135,3.199,7.568,10.979,7.568s11.105-3.434,11.105-7.568v-4.135
	c0-3.221-2.32-5.324-5.271-6.375l-9.783-3.434C357.476,73.269,355.468,71.796,355.468,69.415L355.468,69.415z"/>
<path fill="#8A8A8D" d="M258.66,61.005c0.252-0.42,0.061-0.84-0.441-0.84h-1.754c-0.566,0-0.879,0.42-1.129,0.84l-7.006,10.91
	l1.635,2.656L258.66,61.005L258.66,61.005z M248.423,77.263l-1.631-2.664l-8.406-13.594c-0.254-0.42-0.566-0.84-1.131-0.84h-2.07
	c-0.564,0-0.688,0.35-0.375,0.84l9.912,16.188L234.451,93.87c-0.248,0.42-0.061,0.84,0.439,0.84h1.863
	c0.564,0,0.877-0.42,1.131-0.84l8.467-14.014l8.721,14.014c0.25,0.42,0.563,0.84,1.129,0.84h2.008c0.563,0,0.689-0.42,0.438-0.84
	L248.423,77.263L248.423,77.263z"/>
<path fill="#8A8A8D" d="M214.611,86.653v-1.682c0-0.561-0.25-0.842-0.752-0.842h-1.633c-0.5,0-0.688,0.281-0.688,0.842v1.471
	c0,3.432-1.695,5.814-7.971,5.814c-6.271,0-7.965-2.383-7.965-5.814v-8.33h18.318c0.439,0,0.689-0.281,0.689-0.771v-9.047
	c0-5.115-2.633-8.689-11.043-8.689c-8.467,0-11.164,3.574-11.164,8.689v18.359c0,5.045,2.635,8.617,11.102,8.617
	C211.978,95.271,214.611,91.698,214.611,86.653L214.611,86.653z M195.603,75.153v-6.721c0-3.363,1.756-5.814,7.965-5.814
	c6.15,0,7.971,2.451,7.971,5.814v6.721H195.603L195.603,75.153z"/>
<path fill="#8A8A8D" d="M168.533,93.87V46.571c0-0.561-0.256-0.842-0.764-0.842h-1.533c-0.574,0-0.768,0.281-0.768,0.842V93.87
	c0,0.559,0.193,0.84,0.768,0.84h1.533C168.277,94.71,168.533,94.429,168.533,93.87L168.533,93.87z"/>
</svg>
